exploratory\_analysis
================
emmamendelsohn
Mon Jan 28 14:47:07 2019

—————–Visualize—————–

    ## # A tibble: 61 x 6
    ##     date country       SP.POP.TOTL     n continent NY.GDP.MKTP.CD.Billion
    ##    <dbl> <chr>               <dbl> <dbl> <chr>                      <dbl>
    ##  1  2015 china          1371220000   184 Asia                      11065.
    ##  2  2015 united states   321039839   167 Americas                  18121.
    ##  3  2015 india          1309053980   137 Asia                       2102.
    ##  4  2015 spain            46444832   108 Europe                     1198.
    ##  5  2015 canada           35832513   101 Americas                   1560.
    ##  6  2015 japan           127141000    88 Asia                       4395.
    ##  7  2015 france           66593366    83 Europe                     2438.
    ##  8  2015 brazil          205962108    60 Americas                   1802.
    ##  9  2015 south korea      51014947    54 Asia                       1383.
    ## 10  2015 italy            60730582    51 Europe                     1833.
    ## # … with 51 more rows
…
